%YAML 1.1
%TAG !u! tag:unity3d.com,2011:
--- !u!1045 &1
EditorBuildSettings:
  m_ObjectHideFlags: 0
  serializedVersion: 2
  m_Scenes:
  - enabled: 1
    path: Assets/Scenes/Menu.unity
    guid: c4e394862caa30f4093abd93d69f47fa
  - enabled: 0
    path: Assets/Scenes/Roguelike.unity
    guid: 8c9cfa26abfee488c85f1582747f6a02
  - enabled: 1
    path: Assets/Scenes/FFA Slayer.unity
    guid: 3189d5c09163f434e81f12de185d6918
  m_configObjects:
    Unity.XR.Oculus.Settings: {fileID: 11400000, guid: ede0a8c96290bc94889aef82a058a7a0, type: 2}
    com.unity.input.settings: {fileID: 11400000, guid: 59269a35a6270414f96a5da690903201, type: 2}
    com.unity.xr.management.loader_settings: {fileID: 11400000, guid: 9d123405511e4214e9daa7266d4fc764, type: 2}
    com.unity.xr.openxr.settings4: {fileID: 11400000, guid: e9f9c97e6929d84478953cd1580ffd8a, type: 2}
  m_UseUCBPForAssetBundles: 0
