%YAML 1.1
%TAG !u! tag:unity3d.com,2011:
--- !u!129 &1
PlayerSettings:
  m_ObjectHideFlags: 0
  serializedVersion: 27
  productGUID: bd53f2466a3b972468dd449e8f04d683
  AndroidProfiler: 0
  AndroidFilterTouchesWhenObscured: 0
  AndroidEnableSustainedPerformanceMode: 0
  defaultScreenOrientation: 4
  targetDevice: 2
  useOnDemandResources: 0
  accelerometerFrequency: 60
  companyName: Dawnbreaker Games
  productName: Wizard Game
  defaultCursor: {fileID: 0}
  cursorHotspot: {x: 0, y: 0}
  m_SplashScreenBackgroundColor: {r: 0.12156863, g: 0.12156863, b: 0.1254902, a: 1}
  m_ShowUnitySplashScreen: 1
  m_ShowUnitySplashLogo: 1
  m_SplashScreenOverlayOpacity: 1
  m_SplashScreenAnimation: 1
  m_SplashScreenLogoStyle: 1
  m_SplashScreenDrawMode: 0
  m_SplashScreenBackgroundAnimationZoom: 1
  m_SplashScreenLogoAnimationZoom: 1
  m_SplashScreenBackgroundLandscapeAspect: 1
  m_SplashScreenBackgroundPortraitAspect: 1
  m_SplashScreenBackgroundLandscapeUvs:
    serializedVersion: 2
    x: 0
    y: 0
    width: 1
    height: 1
  m_SplashScreenBackgroundPortraitUvs:
    serializedVersion: 2
    x: 0
    y: 0
    width: 1
    height: 1
  m_SplashScreenLogos: []
  m_VirtualRealitySplashScreen: {fileID: 0}
  m_HolographicTrackingLossScreen: {fileID: 0}
  defaultScreenWidth: 1920
  defaultScreenHeight: 1080
  defaultScreenWidthWeb: 960
  defaultScreenHeightWeb: 600
  m_StereoRenderingPath: 0
  m_ActiveColorSpace: 0
  unsupportedMSAAFallback: 0
  m_SpriteBatchVertexThreshold: 300
  m_MTRendering: 1
  mipStripping: 1
  numberOfMipsStripped: 0
  numberOfMipsStrippedPerMipmapLimitGroup: {}
  m_StackTraceTypes: 020000000200000002000000020000000200000001000000
  iosShowActivityIndicatorOnLoading: -1
  androidShowActivityIndicatorOnLoading: -1
  iosUseCustomAppBackgroundBehavior: 0
  allowedAutorotateToPortrait: 1
  allowedAutorotateToPortraitUpsideDown: 1
  allowedAutorotateToLandscapeRight: 1
  allowedAutorotateToLandscapeLeft: 1
  useOSAutorotation: 1
  use32BitDisplayBuffer: 1
  preserveFramebufferAlpha: 0
  disableDepthAndStencilBuffers: 0
  androidStartInFullscreen: 1
  androidRenderOutsideSafeArea: 1
  androidUseSwappy: 1
  androidBlitType: 0
  androidResizableWindow: 0
  androidDefaultWindowWidth: 1920
  androidDefaultWindowHeight: 1080
  androidMinimumWindowWidth: 400
  androidMinimumWindowHeight: 300
  androidFullscreenMode: 1
  androidApplicationEntry: 1
  androidPredictiveBackSupport: 0
  defaultIsNativeResolution: 1
  macRetinaSupport: 1
  runInBackground: 0
  captureSingleScreen: 0
  muteOtherAudioSources: 0
  Prepare IOS For Recording: 0
  Force IOS Speakers When Recording: 0
  deferSystemGesturesMode: 0
  hideHomeButton: 0
  submitAnalytics: 1
  usePlayerLog: 1
  dedicatedServerOptimizations: 0
  bakeCollisionMeshes: 0
  forceSingleInstance: 0
  useFlipModelSwapchain: 1
  resizableWindow: 0
  useMacAppStoreValidation: 0
  macAppStoreCategory: public.app-category.games
  gpuSkinning: 0
  meshDeformation: 0
  xboxPIXTextureCapture: 0
  xboxEnableAvatar: 0
  xboxEnableKinect: 0
  xboxEnableKinectAutoTracking: 0
  xboxEnableFitness: 0
  visibleInBackground: 1
  allowFullscreenSwitch: 1
  fullscreenMode: 1
  xboxSpeechDB: 0
  xboxEnableHeadOrientation: 0
  xboxEnableGuest: 0
  xboxEnablePIXSampling: 0
  metalFramebufferOnly: 0
  xboxOneResolution: 0
  xboxOneSResolution: 0
  xboxOneXResolution: 3
  xboxOneMonoLoggingLevel: 0
  xboxOneLoggingLevel: 1
  xboxOneDisableEsram: 0
  xboxOneEnableTypeOptimization: 0
  xboxOnePresentImmediateThreshold: 0
  switchQueueCommandMemory: 1048576
  switchQueueControlMemory: 16384
  switchQueueComputeMemory: 262144
  switchNVNShaderPoolsGranularity: 33554432
  switchNVNDefaultPoolsGranularity: 16777216
  switchNVNOtherPoolsGranularity: 16777216
  switchGpuScratchPoolGranularity: 2097152
  switchAllowGpuScratchShrinking: 0
  switchNVNMaxPublicTextureIDCount: 0
  switchNVNMaxPublicSamplerIDCount: 0
  switchMaxWorkerMultiple: 8
  switchNVNGraphicsFirmwareMemory: 32
  vulkanNumSwapchainBuffers: 3
  vulkanEnableSetSRGBWrite: 0
  vulkanEnablePreTransform: 0
  vulkanEnableLateAcquireNextImage: 0
  vulkanEnableCommandBufferRecycling: 1
  loadStoreDebugModeEnabled: 0
  bundleVersion: 1.0
  preloadedAssets:
  - {fileID: 11400000, guid: 59269a35a6270414f96a5da690903201, type: 2}
  metroInputSource: 0
  wsaTransparentSwapchain: 0
  m_HolographicPauseOnTrackingLoss: 1
  xboxOneDisableKinectGpuReservation: 1
  xboxOneEnable7thCore: 1
  vrSettings:
    enable360StereoCapture: 0
  isWsaHolographicRemotingEnabled: 0
  enableFrameTimingStats: 0
  enableOpenGLProfilerGPURecorders: 1
  allowHDRDisplaySupport: 0
  useHDRDisplay: 0
  hdrBitDepth: 0
  m_ColorGamuts: 00000000
  targetPixelDensity: 30
  resolutionScalingMode: 0
  resetResolutionOnWindowResize: 0
  androidSupportedAspectRatio: 1
  androidMaxAspectRatio: 2.1
  androidMinAspectRatio: 1
  applicationIdentifier:
    Standalone: com.Dawnbreaker-Games.Wizard-Game
  buildNumber:
    Bratwurst: 0
    Standalone: 0
    iPhone: 0
    tvOS: 0
  overrideDefaultApplicationIdentifier: 0
  AndroidBundleVersionCode: 1
  AndroidMinSdkVersion: 23
  AndroidTargetSdkVersion: 0
  AndroidPreferredInstallLocation: 1
  aotOptions: 
  stripEngineCode: 1
  iPhoneStrippingLevel: 0
  iPhoneScriptCallOptimization: 0
  ForceInternetPermission: 0
  ForceSDCardPermission: 0
  CreateWallpaper: 0
  androidSplitApplicationBinary: 0
  keepLoadedShadersAlive: 0
  StripUnusedMeshComponents: 1
  strictShaderVariantMatching: 0
  VertexChannelCompressionMask: 4054
  iPhoneSdkVersion: 988
  iOSTargetOSVersionString: 13.0
  tvOSSdkVersion: 0
  tvOSRequireExtendedGameController: 0
  tvOSTargetOSVersionString: 13.0
  bratwurstSdkVersion: 0
  bratwurstTargetOSVersionString: 13.0
  uIPrerenderedIcon: 0
  uIRequiresPersistentWiFi: 0
  uIRequiresFullScreen: 1
  uIStatusBarHidden: 1
  uIExitOnSuspend: 0
  uIStatusBarStyle: 0
  appleTVSplashScreen: {fileID: 0}
  appleTVSplashScreen2x: {fileID: 0}
  tvOSSmallIconLayers: []
  tvOSSmallIconLayers2x: []
  tvOSLargeIconLayers: []
  tvOSLargeIconLayers2x: []
  tvOSTopShelfImageLayers: []
  tvOSTopShelfImageLayers2x: []
  tvOSTopShelfImageWideLayers: []
  tvOSTopShelfImageWideLayers2x: []
  iOSLaunchScreenType: 0
  iOSLaunchScreenPortrait: {fileID: 0}
  iOSLaunchScreenLandscape: {fileID: 0}
  iOSLaunchScreenBackgroundColor:
    serializedVersion: 2
    rgba: 0
  iOSLaunchScreenFillPct: 100
  iOSLaunchScreenSize: 100
  iOSLaunchScreenCustomXibPath: 
  iOSLaunchScreeniPadType: 0
  iOSLaunchScreeniPadImage: {fileID: 0}
  iOSLaunchScreeniPadBackgroundColor:
    serializedVersion: 2
    rgba: 0
  iOSLaunchScreeniPadFillPct: 100
  iOSLaunchScreeniPadSize: 100
  iOSLaunchScreeniPadCustomXibPath: 
  iOSLaunchScreenCustomStoryboardPath: 
  iOSLaunchScreeniPadCustomStoryboardPath: 
  iOSDeviceRequirements: []
  iOSURLSchemes: []
  macOSURLSchemes: []
  iOSBackgroundModes: 0
  iOSMetalForceHardShadows: 0
  metalEditorSupport: 1
  metalAPIValidation: 1
  iOSRenderExtraFrameOnPause: 0
  iosCopyPluginsCodeInsteadOfSymlink: 0
  appleDeveloperTeamID: 
  iOSManualSigningProvisioningProfileID: 
  tvOSManualSigningProvisioningProfileID: 
  bratwurstManualSigningProvisioningProfileID: 
  iOSManualSigningProvisioningProfileType: 0
  tvOSManualSigningProvisioningProfileType: 0
  bratwurstManualSigningProvisioningProfileType: 0
  appleEnableAutomaticSigning: 0
  iOSRequireARKit: 0
  iOSAutomaticallyDetectAndAddCapabilities: 1
  appleEnableProMotion: 0
  shaderPrecisionModel: 0
  clonedFromGUID: 00000000000000000000000000000000
  templatePackageId: 
  templateDefaultScene: 
  useCustomMainManifest: 0
  useCustomLauncherManifest: 0
  useCustomMainGradleTemplate: 0
  useCustomLauncherGradleManifest: 0
  useCustomBaseGradleTemplate: 0
  useCustomGradlePropertiesTemplate: 0
  useCustomGradleSettingsTemplate: 0
  useCustomProguardFile: 0
  AndroidTargetArchitectures: 1
  AndroidTargetDevices: 0
  AndroidSplashScreenScale: 0
  androidSplashScreen: {fileID: 0}
  AndroidKeystoreName: 
  AndroidKeyaliasName: 
  AndroidEnableArmv9SecurityFeatures: 0
  AndroidEnableArm64MTE: 0
  AndroidBuildApkPerCpuArchitecture: 0
  AndroidTVCompatibility: 0
  AndroidIsGame: 1
  AndroidEnableTango: 0
  androidEnableBanner: 1
  androidUseLowAccuracyLocation: 0
  androidUseCustomKeystore: 0
  m_AndroidBanners:
  - width: 320
    height: 180
    banner: {fileID: 0}
  androidGamepadSupportLevel: 0
  chromeosInputEmulation: 1
  AndroidMinifyRelease: 0
  AndroidMinifyDebug: 0
  AndroidValidateAppBundleSize: 1
  AndroidAppBundleSizeToValidate: 150
  AndroidReportGooglePlayAppDependencies: 1
  m_BuildTargetIcons: []
  m_BuildTargetPlatformIcons:
  - m_BuildTarget: iPhone
    m_Icons:
    - m_Textures: []
      m_Width: 180
      m_Height: 180
      m_Kind: 0
      m_SubKind: iPhone
    - m_Textures: []
      m_Width: 120
      m_Height: 120
      m_Kind: 0
      m_SubKind: iPhone
    - m_Textures: []
      m_Width: 167
      m_Height: 167
      m_Kind: 0
      m_SubKind: iPad
    - m_Textures: []
      m_Width: 152
      m_Height: 152
      m_Kind: 0
      m_SubKind: iPad
    - m_Textures: []
      m_Width: 76
      m_Height: 76
      m_Kind: 0
      m_SubKind: iPad
    - m_Textures: []
      m_Width: 120
      m_Height: 120
      m_Kind: 3
      m_SubKind: iPhone
    - m_Textures: []
      m_Width: 80
      m_Height: 80
      m_Kind: 3
      m_SubKind: iPhone
    - m_Textures: []
      m_Width: 80
      m_Height: 80
      m_Kind: 3
      m_SubKind: iPad
    - m_Textures: []
      m_Width: 40
      m_Height: 40
      m_Kind: 3
      m_SubKind: iPad
    - m_Textures: []
      m_Width: 87
      m_Height: 87
      m_Kind: 1
      m_SubKind: iPhone
    - m_Textures: []
      m_Width: 58
      m_Height: 58
      m_Kind: 1
      m_SubKind: iPhone
    - m_Textures: []
      m_Width: 29
      m_Height: 29
      m_Kind: 1
      m_SubKind: iPhone
    - m_Textures: []
      m_Width: 58
      m_Height: 58
      m_Kind: 1
      m_SubKind: iPad
    - m_Textures: []
      m_Width: 29
      m_Height: 29
      m_Kind: 1
      m_SubKind: iPad
    - m_Textures: []
      m_Width: 60
      m_Height: 60
      m_Kind: 2
      m_SubKind: iPhone
    - m_Textures: []
      m_Width: 40
      m_Height: 40
      m_Kind: 2
      m_SubKind: iPhone
    - m_Textures: []
      m_Width: 40
      m_Height: 40
      m_Kind: 2
      m_SubKind: iPad
    - m_Textures: []
      m_Width: 20
      m_Height: 20
      m_Kind: 2
      m_SubKind: iPad
    - m_Textures: []
      m_Width: 1024
      m_Height: 1024
      m_Kind: 4
      m_SubKind: App Store
  - m_BuildTarget: Android
    m_Icons:
    - m_Textures: []
      m_Width: 432
      m_Height: 432
      m_Kind: 2
      m_SubKind: 
    - m_Textures: []
      m_Width: 324
      m_Height: 324
      m_Kind: 2
      m_SubKind: 
    - m_Textures: []
      m_Width: 216
      m_Height: 216
      m_Kind: 2
      m_SubKind: 
    - m_Textures: []
      m_Width: 162
      m_Height: 162
      m_Kind: 2
      m_SubKind: 
    - m_Textures: []
      m_Width: 108
      m_Height: 108
      m_Kind: 2
      m_SubKind: 
    - m_Textures: []
      m_Width: 81
      m_Height: 81
      m_Kind: 2
      m_SubKind: 
    - m_Textures: []
      m_Width: 192
      m_Height: 192
      m_Kind: 1
      m_SubKind: 
    - m_Textures: []
      m_Width: 144
      m_Height: 144
      m_Kind: 1
      m_SubKind: 
    - m_Textures: []
      m_Width: 96
      m_Height: 96
      m_Kind: 1
      m_SubKind: 
    - m_Textures: []
      m_Width: 72
      m_Height: 72
      m_Kind: 1
      m_SubKind: 
    - m_Textures: []
      m_Width: 48
      m_Height: 48
      m_Kind: 1
      m_SubKind: 
    - m_Textures: []
      m_Width: 36
      m_Height: 36
      m_Kind: 1
      m_SubKind: 
    - m_Textures: []
      m_Width: 192
      m_Height: 192
      m_Kind: 0
      m_SubKind: 
    - m_Textures: []
      m_Width: 144
      m_Height: 144
      m_Kind: 0
      m_SubKind: 
    - m_Textures: []
      m_Width: 96
      m_Height: 96
      m_Kind: 0
      m_SubKind: 
    - m_Textures: []
      m_Width: 72
      m_Height: 72
      m_Kind: 0
      m_SubKind: 
    - m_Textures: []
      m_Width: 48
      m_Height: 48
      m_Kind: 0
      m_SubKind: 
    - m_Textures: []
      m_Width: 36
      m_Height: 36
      m_Kind: 0
      m_SubKind: 
  m_BuildTargetBatching: []
  m_BuildTargetShaderSettings: []
  m_BuildTargetGraphicsJobs: []
  m_BuildTargetGraphicsJobMode: []
  m_BuildTargetGraphicsAPIs: []
  m_BuildTargetVRSettings: []
  m_DefaultShaderChunkSizeInMB: 16
  m_DefaultShaderChunkCount: 0
  openGLRequireES31: 0
  openGLRequireES31AEP: 0
  openGLRequireES32: 0
  m_TemplateCustomTags:
    BACKGROUND: 
    OPTIMIZE_FOR_PIXEL_ART: 
    SCALE_TO_FIT: true
  mobileMTRendering:
    Android: 1
    iPhone: 1
    tvOS: 1
  m_BuildTargetGroupLightmapEncodingQuality: []
  m_BuildTargetGroupHDRCubemapEncodingQuality: []
  m_BuildTargetGroupLightmapSettings: []
  m_BuildTargetGroupLoadStoreDebugModeSettings: []
  m_BuildTargetNormalMapEncoding: []
  m_BuildTargetDefaultTextureCompressionFormat: []
  playModeTestRunnerEnabled: 0
  runPlayModeTestAsEditModeTest: 0
  actionOnDotNetUnhandledException: 1
  enableInternalProfiler: 0
  logObjCUncaughtExceptions: 1
  enableCrashReportAPI: 0
  cameraUsageDescription: 
  locationUsageDescription: 
  microphoneUsageDescription: Players can chat with eachother
  bluetoothUsageDescription: 
  macOSTargetOSVersion: 10.13.0
  switchNMETAOverride: 
  switchNetLibKey: 
  switchSocketMemoryPoolSize: 6144
  switchSocketAllocatorPoolSize: 128
  switchSocketConcurrencyLimit: 14
  switchScreenResolutionBehavior: 2
  switchUseCPUProfiler: 0
  switchEnableFileSystemTrace: 0
  switchUseGOLDLinker: 0
  switchLTOSetting: 0
  switchNSODependencies: 
  switchCompilerFlags: 
  switchSupportedNpadStyles: 22
  switchNativeFsCacheSize: 32
  switchIsHoldTypeHorizontal: 1
  switchSupportedNpadCount: 8
  switchEnableTouchScreen: 1
  switchSocketConfigEnabled: 0
  switchTcpInitialSendBufferSize: 32
  switchTcpInitialReceiveBufferSize: 64
  switchTcpAutoSendBufferSizeMax: 256
  switchTcpAutoReceiveBufferSizeMax: 256
  switchUdpSendBufferSize: 9
  switchUdpReceiveBufferSize: 42
  switchSocketBufferEfficiency: 4
  switchSocketInitializeEnabled: 1
  switchNetworkInterfaceManagerInitializeEnabled: 1
  switchDisableHTCSPlayerConnection: 0
  switchUseNewStyleFilepaths: 1
  switchUseLegacyFmodPriorities: 0
  switchUseMicroSleepForYield: 1
  switchEnableRamDiskSupport: 0
  switchMicroSleepForYieldTime: 25
  switchRamDiskSpaceSize: 12
  ps4NPAgeRating: 12
  ps4NPTitleSecret: 
  ps4NPTrophyPackPath: 
  ps4ParentalLevel: 11
  ps4ContentID: ED1633-NPXX51362_00-0000000000000000
  ps4Category: 0
  ps4MasterVersion: 01.00
  ps4AppVersion: 01.00
  ps4AppType: 0
  ps4ParamSfxPath: 
  ps4VideoOutPixelFormat: 0
  ps4VideoOutInitialWidth: 1920
  ps4VideoOutBaseModeInitialWidth: 1920
  ps4VideoOutReprojectionRate: 60
  ps4PronunciationXMLPath: 
  ps4PronunciationSIGPath: 
  ps4BackgroundImagePath: 
  ps4StartupImagePath: 
  ps4StartupImagesFolder: 
  ps4IconImagesFolder: 
  ps4SaveDataImagePath: 
  ps4SdkOverride: 
  ps4BGMPath: 
  ps4ShareFilePath: 
  ps4ShareOverlayImagePath: 
  ps4PrivacyGuardImagePath: 
  ps4ExtraSceSysFile: 
  ps4NPtitleDatPath: 
  ps4RemotePlayKeyAssignment: -1
  ps4RemotePlayKeyMappingDir: 
  ps4PlayTogetherPlayerCount: 0
  ps4EnterButtonAssignment: 2
  ps4ApplicationParam1: 0
  ps4ApplicationParam2: 0
  ps4ApplicationParam3: 0
  ps4ApplicationParam4: 0
  ps4DownloadDataSize: 0
  ps4GarlicHeapSize: 2048
  ps4ProGarlicHeapSize: 2560
  playerPrefsMaxSize: 32768
  ps4Passcode: frAQBc8Wsa1xVPfvJcrgRYwTiizs2trQ
  ps4pnSessions: 1
  ps4pnPresence: 1
  ps4pnFriends: 1
  ps4pnGameCustomData: 1
  playerPrefsSupport: 0
  enableApplicationExit: 0
  resetTempFolder: 1
  restrictedAudioUsageRights: 0
  ps4UseResolutionFallback: 0
  ps4ReprojectionSupport: 0
  ps4UseAudio3dBackend: 0
  ps4UseLowGarlicFragmentationMode: 1
  ps4SocialScreenEnabled: 0
  ps4ScriptOptimizationLevel: 2
  ps4Audio3dVirtualSpeakerCount: 14
  ps4attribCpuUsage: 0
  ps4PatchPkgPath: 
  ps4PatchLatestPkgPath: 
  ps4PatchChangeinfoPath: 
  ps4PatchDayOne: 0
  ps4attribUserManagement: 0
  ps4attribMoveSupport: 0
  ps4attrib3DSupport: 0
  ps4attribShareSupport: 0
  ps4attribExclusiveVR: 0
  ps4disableAutoHideSplash: 0
  ps4videoRecordingFeaturesUsed: 0
  ps4contentSearchFeaturesUsed: 0
  ps4CompatibilityPS5: 0
  ps4AllowPS5Detection: 0
  ps4GPU800MHz: 1
  ps4attribEyeToEyeDistanceSettingVR: 0
  ps4IncludedModules: []
  ps4attribVROutputEnabled: 0
  monoEnv: 
  splashScreenBackgroundSourceLandscape: {fileID: 0}
  splashScreenBackgroundSourcePortrait: {fileID: 0}
  blurSplashScreenBackground: 1
  spritePackerPolicy: 
  webGLMemorySize: 32
  webGLExceptionSupport: 0
  webGLNameFilesAsHashes: 0
  webGLShowDiagnostics: 0
  webGLDataCaching: 1
  webGLDebugSymbols: 0
  webGLEmscriptenArgs: 
  webGLModulesDirectory: 
  webGLTemplate: PROJECT:BetterMinimal
  webGLAnalyzeBuildSize: 0
  webGLUseEmbeddedResources: 0
  webGLCompressionFormat: 1
  webGLWasmArithmeticExceptions: 0
  webGLLinkerTarget: 1
  webGLThreadsSupport: 0
  webGLDecompressionFallback: 0
  webGLInitialMemorySize: 32
  webGLMaximumMemorySize: 2048
  webGLMemoryGrowthMode: 2
  webGLMemoryLinearGrowthStep: 16
  webGLMemoryGeometricGrowthStep: 0.2
  webGLMemoryGeometricGrowthCap: 96
  webGLEnableWebGPU: 0
  webGLPowerPreference: 2
  webGLWebAssemblyTable: 0
  webGLWebAssemblyBigInt: 0
  webGLCloseOnQuit: 0
  scriptingDefineSymbols:
    Android: FG_MPRO;PHOTON_UNITY_NETWORKING;PUN_2_0_OR_NEWER;PUN_2_OR_NEWER;PUN_2_19_OR_NEWER;PUN2_NETWORK_PROVIDER
    Bratwurst: FG_MPRO;PHOTON_UNITY_NETWORKING;PUN_2_0_OR_NEWER;PUN_2_OR_NEWER;PUN_2_19_OR_NEWER;PUN2_NETWORK_PROVIDER
    EmbeddedLinux: FG_MPRO;PHOTON_UNITY_NETWORKING;PUN_2_0_OR_NEWER;PUN_2_OR_NEWER;PUN_2_19_OR_NEWER;PUN2_NETWORK_PROVIDER
    GameCoreScarlett: FG_MPRO;PHOTON_UNITY_NETWORKING;PUN_2_0_OR_NEWER;PUN_2_OR_NEWER;PUN_2_19_OR_NEWER;PUN2_NETWORK_PROVIDER
    GameCoreXboxOne: FG_MPRO;PHOTON_UNITY_NETWORKING;PUN_2_0_OR_NEWER;PUN_2_OR_NEWER;PUN_2_19_OR_NEWER;PUN2_NETWORK_PROVIDER
    LinuxHeadlessSimulation: FG_MPRO;PHOTON_UNITY_NETWORKING;PUN_2_0_OR_NEWER;PUN_2_OR_NEWER;PUN_2_19_OR_NEWER;PUN2_NETWORK_PROVIDER
    Nintendo Switch: FG_MPRO;PHOTON_UNITY_NETWORKING;PUN_2_0_OR_NEWER;PUN_2_OR_NEWER;PUN_2_19_OR_NEWER;PUN2_NETWORK_PROVIDER
    PS4: FG_MPRO;PHOTON_UNITY_NETWORKING;PUN_2_0_OR_NEWER;PUN_2_OR_NEWER;PUN_2_19_OR_NEWER;PUN2_NETWORK_PROVIDER
    PS5: FG_MPRO;PHOTON_UNITY_NETWORKING;PUN_2_0_OR_NEWER;PUN_2_OR_NEWER;PUN_2_19_OR_NEWER;PUN2_NETWORK_PROVIDER
    QNX: FG_MPRO;PHOTON_UNITY_NETWORKING;PUN_2_0_OR_NEWER;PUN_2_OR_NEWER;PUN_2_19_OR_NEWER;PUN2_NETWORK_PROVIDER
    Standalone: FG_MPRO;PHOTON_UNITY_NETWORKING;PUN_2_0_OR_NEWER;PUN_2_OR_NEWER;PUN_2_19_OR_NEWER;PUN2_NETWORK_PROVIDER
    WebGL: FG_MPRO;PHOTON_UNITY_NETWORKING;PUN_2_0_OR_NEWER;PUN_2_OR_NEWER;PUN_2_19_OR_NEWER;PUN2_NETWORK_PROVIDER
    Windows Store Apps: FG_MPRO;PHOTON_UNITY_NETWORKING;PUN_2_0_OR_NEWER;PUN_2_OR_NEWER;PUN_2_19_OR_NEWER;PUN2_NETWORK_PROVIDER
    XboxOne: FG_MPRO;PHOTON_UNITY_NETWORKING;PUN_2_0_OR_NEWER;PUN_2_OR_NEWER;PUN_2_19_OR_NEWER;PUN2_NETWORK_PROVIDER
    iPhone: FG_MPRO;PHOTON_UNITY_NETWORKING;PUN_2_0_OR_NEWER;PUN_2_OR_NEWER;PUN_2_19_OR_NEWER;PUN2_NETWORK_PROVIDER
    tvOS: FG_MPRO;PHOTON_UNITY_NETWORKING;PUN_2_0_OR_NEWER;PUN_2_OR_NEWER;PUN_2_19_OR_NEWER;PUN2_NETWORK_PROVIDER
  additionalCompilerArguments: {}
  platformArchitecture: {}
  scriptingBackend:
    Android: 0
    Standalone: 1
  il2cppCompilerConfiguration: {}
  il2cppCodeGeneration: {}
  il2cppStacktraceInformation:
    Standalone: 0
  managedStrippingLevel:
    Standalone: 3
    WebGL: 3
  incrementalIl2cppBuild: {}
  suppressCommonWarnings: 1
  allowUnsafeCode: 0
  useDeterministicCompilation: 1
  additionalIl2CppArgs: 
  scriptingRuntimeVersion: 1
  gcIncremental: 1
  gcWBarrierValidation: 0
  apiCompatibilityLevelPerPlatform: {}
  editorAssembliesCompatibilityLevel: 1
  m_RenderingPath: 1
  m_MobileRenderingPath: 1
  metroPackageName: Fight Room
  metroPackageVersion: 
  metroCertificatePath: 
  metroCertificatePassword: 
  metroCertificateSubject: 
  metroCertificateIssuer: 
  metroCertificateNotAfter: 0000000000000000
  metroApplicationDescription: Fight Room
  wsaImages: {}
  metroTileShortName: 
  metroTileShowName: 0
  metroMediumTileShowName: 0
  metroLargeTileShowName: 0
  metroWideTileShowName: 0
  metroSupportStreamingInstall: 0
  metroLastRequiredScene: 0
  metroDefaultTileSize: 1
  metroTileForegroundText: 2
  metroTileBackgroundColor: {r: 0.13333334, g: 0.17254902, b: 0.21568628, a: 0}
  metroSplashScreenBackgroundColor: {r: 0.12941177, g: 0.17254902, b: 0.21568628, a: 1}
  metroSplashScreenUseBackgroundColor: 0
  platformCapabilities: {}
  metroTargetDeviceFamilies: {}
  metroFTAName: 
  metroFTAFileTypes: []
  metroProtocolName: 
  vcxProjDefaultLanguage: 
  XboxOneProductId: 
  XboxOneUpdateKey: 
  XboxOneSandboxId: 
  XboxOneContentId: 
  XboxOneTitleId: 
  XboxOneSCId: 
  XboxOneGameOsOverridePath: 
  XboxOnePackagingOverridePath: 
  XboxOneAppManifestOverridePath: 
  XboxOneVersion: 1.0.0.0
  XboxOnePackageEncryption: 0
  XboxOnePackageUpdateGranularity: 2
  XboxOneDescription: 
  XboxOneLanguage:
  - enus
  XboxOneCapability: []
  XboxOneGameRating: {}
  XboxOneIsContentPackage: 0
  XboxOneEnhancedXboxCompatibilityMode: 0
  XboxOneEnableGPUVariability: 1
  XboxOneSockets: {}
  XboxOneSplashScreen: {fileID: 0}
  XboxOneAllowedProductIds: []
  XboxOnePersistentLocalStorageSize: 0
  XboxOneXTitleMemory: 8
  XboxOneOverrideIdentityName: 
  XboxOneOverrideIdentityPublisher: 
  vrEditorSettings: {}
  cloudServicesEnabled: {}
  luminIcon:
    m_Name: 
    m_ModelFolderPath: 
    m_PortalFolderPath: 
  luminCert:
    m_CertPath: 
    m_SignPackage: 1
  luminIsChannelApp: 0
  luminVersion:
    m_VersionCode: 1
    m_VersionName: 
  hmiPlayerDataPath: 
  hmiForceSRGBBlit: 1
  embeddedLinuxEnableGamepadInput: 1
  hmiCpuConfiguration: 
  hmiLogStartupTiming: 0
  qnxGraphicConfPath: 
  apiCompatibilityLevel: 6
  captureStartupLogs: {}
  activeInputHandler: 1
  windowsGamepadBackendHint: 0
  cloudProjectId: 
  framebufferDepthMemorylessMode: 0
  qualitySettingsNames: []
  projectName: 
  organizationId: 
  cloudEnabled: 0
  legacyClampBlendShapeWeights: 0
  hmiLoadingImage: {fileID: 0}
  platformRequiresReadableAssets: 0
  virtualTexturingSupportEnabled: 0
  insecureHttpOption: 0
